<?xml version="1.0" encoding="UTF-8"?>
<!DOCTYPE svg PUBLIC "-//W3C//DTD SVG 1.1//EN" "http://www.w3.org/Graphics/SVG/1.1/DTD/svg11.dtd">
<!-- Creator: CorelDRAW 2017 -->
<svg xmlns="http://www.w3.org/2000/svg" xml:space="preserve" width="210mm" height="297mm" version="1.1" style="shape-rendering:geometricPrecision; text-rendering:geometricPrecision; image-rendering:optimizeQuality; fill-rule:evenodd; clip-rule:evenodd"
viewBox="0 0 21000 29700"
 xmlns:xlink="http://www.w3.org/1999/xlink">
 <defs>
  <style type="text/css">
   <![CDATA[
    .fil0 {fill:#005699;fill-rule:nonzero}
    .fil2 {fill:#00A3CA;fill-rule:nonzero}
    .fil1 {fill:#FFBC00;fill-rule:nonzero}
   ]]>
  </style>
 </defs>
 <g id="Слой_x0020_1">
  <metadata id="CorelCorpID_0Corel-Layer"/>
  <polygon class="fil0" points="21004.86,3030.11 4.86,898.05 4.86,-15.7 21004.86,-15.7 "/>
  <polygon class="fil1" points="4.86,3476.8 14895.04,3476.8 21004.86,1481.36 4.86,178.12 "/>
  <polygon class="fil2" points="4.86,4746.8 21004.86,-15.7 4.86,-15.7 "/>
 </g>
</svg>
